<?xml version="1.0" encoding="UTF-8" standalone="no"?>
<!-- Created with Inkscape (http://www.inkscape.org/) -->

<svg
   xmlns:dc="http://purl.org/dc/elements/1.1/"
   xmlns:cc="http://creativecommons.org/ns#"
   xmlns:rdf="http://www.w3.org/1999/02/22-rdf-syntax-ns#"
   xmlns:svg="http://www.w3.org/2000/svg"
   xmlns="http://www.w3.org/2000/svg"
   xmlns:sodipodi="http://sodipodi.sourceforge.net/DTD/sodipodi-0.dtd"
   xmlns:inkscape="http://www.inkscape.org/namespaces/inkscape"
   width="510"
   height="510"
   id="svg2"
   version="1.1"
   inkscape:version="0.48.4 r9939"
   sodipodi:docname="correct.svg">
  <defs
     id="defs4" />
  <sodipodi:namedview
     id="base"
     pagecolor="#ffffff"
     bordercolor="#666666"
     borderopacity="1.0"
     inkscape:pageopacity="0.0"
     inkscape:pageshadow="2"
     inkscape:zoom="1"
     inkscape:cx="331.93017"
     inkscape:cy="158.76751"
     inkscape:document-units="px"
     inkscape:current-layer="layer1"
     showgrid="false"
     fit-margin-top="5"
     fit-margin-right="5"
     fit-margin-bottom="5"
     fit-margin-left="5"
     inkscape:window-width="1450"
     inkscape:window-height="1148"
     inkscape:window-x="65"
     inkscape:window-y="24"
     inkscape:window-maximized="0" />
  <metadata
     id="metadata7">
    <rdf:RDF>
      <cc:Work
         rdf:about="">
        <dc:format>image/svg+xml</dc:format>
        <dc:type
           rdf:resource="http://purl.org/dc/dcmitype/StillImage" />
        <dc:title></dc:title>
      </cc:Work>
    </rdf:RDF>
  </metadata>
  <g
     inkscape:label="Layer 1"
     inkscape:groupmode="layer"
     id="layer1"
     transform="translate(-5.5702181,-6.7207254)">
    <path
       sodipodi:type="arc"
       style="fill:#e56958;fill-opacity:0.95890409;stroke:none"
       id="path3763"
       sodipodi:cx="259.64285"
       sodipodi:cy="125.75504"
       sodipodi:rx="71.071426"
       sodipodi:ry="81.964287"
       d="m 330.64991,122.26739 a 71.071426,81.964287 0 1 1 -0.003,-0.0782"
       sodipodi:start="6.2406216"
       sodipodi:end="12.522852"
       sodipodi:open="true"
       transform="matrix(0,-3.5175282,3.0500571,0,-122.98985,1175.0218)" />
    <g
       id="g3844"
       transform="translate(-24,-2)">
      <rect
         transform="matrix(0.70710678,-0.70710678,0.70710678,0.70710678,0,0)"
         y="358.5603"
         x="-129.04945"
         height="58.689861"
         width="173.94827"
         id="rect3806"
         style="fill:#ffffff;fill-opacity:1;stroke:none" />
      <rect
         transform="matrix(0.70710678,-0.70710678,0.70710678,0.70710678,0,0)"
         y="358.5451"
         x="0.15633975"
         height="58.689861"
         width="173.94827"
         id="rect3806-40"
         style="fill:#ffffff;fill-opacity:1;stroke:none" />
    </g>
    <g
       transform="matrix(0,-1,1,0,7.448675,549.36871)"
       id="g3844-4"
       style="fill:#ffffff;fill-opacity:1">
      <rect
         transform="matrix(0.70710678,-0.70710678,0.70710678,0.70710678,0,0)"
         y="358.5603"
         x="-129.04945"
         height="58.689861"
         width="173.94827"
         id="rect3806-8"
         style="fill:#ffffff;fill-opacity:1;stroke:none" />
      <rect
         transform="matrix(0.70710678,-0.70710678,0.70710678,0.70710678,0,0)"
         y="359.11954"
         x="4.1240606"
         height="58.689861"
         width="173.94827"
         id="rect3806-40-5"
         style="fill:#ffffff;fill-opacity:1;stroke:none" />
    </g>
  </g>
</svg>
